{
  "name": "Ouralabs",
  "version": "2.7.1",
  "summary": "Ouralabs is a device log management solution.",
  "homepage": "https://www.ouralabs.com",
  "license": "MIT",
  "authors": {
    "Ouralabs": "support@ouralabs.com"
  },
  "source": {
    "git": "https://bitbucket.org/tokorom/ouralabs-cocoapods.git",
    "tag": "2.7.1"
  },
  "social_media_url": "https://twitter.com/ouralabs",
  "platforms": {
    "ios": "7.0"
  },
  "requires_arc": true,
  "frameworks": "SystemConfiguration",
  "libraries": "z",
  "source_files": "Pod/Classes",
  "public_header_files": "Pod/Classes/**/*.h"
}
